^Y:\GIT\3980\ASSIGNMENT4\FINALPROJECT\CODE\3980_ASSIGNMENT1\X64\DEBUG\3980_ASSIGNMENT1.RES|Y:\GIT\3980\ASSIGNMENT4\FINALPROJECT\CODE\3980_ASSIGNMENT1\X64\DEBUG\APPLICATION.OBJ|Y:\GIT\3980\ASSIGNMENT4\FINALPROJECT\CODE\3980_ASSIGNMENT1\X64\DEBUG\PHYSICAL.OBJ|Y:\GIT\3980\ASSIGNMENT4\FINALPROJECT\CODE\3980_ASSIGNMENT1\X64\DEBUG\SESSION.OBJ|Y:\GIT\3980\ASSIGNMENT4\FINALPROJECT\CODE\3980_ASSIGNMENT1\X64\DEBUG\STDAFX.OBJ
C:\PROGRAM FILES (X86)\WINDOWS KITS\10\LIB\10.0.17134.0\UM\X64\KERNEL32.LIB
C:\PROGRAM FILES (X86)\WINDOWS KITS\10\LIB\10.0.17134.0\UM\X64\USER32.LIB
C:\PROGRAM FILES (X86)\WINDOWS KITS\10\LIB\10.0.17134.0\UM\X64\GDI32.LIB
C:\PROGRAM FILES (X86)\WINDOWS KITS\10\LIB\10.0.17134.0\UM\X64\WINSPOOL.LIB
C:\PROGRAM FILES (X86)\WINDOWS KITS\10\LIB\10.0.17134.0\UM\X64\COMDLG32.LIB
C:\PROGRAM FILES (X86)\WINDOWS KITS\10\LIB\10.0.17134.0\UM\X64\ADVAPI32.LIB
C:\PROGRAM FILES (X86)\WINDOWS KITS\10\LIB\10.0.17134.0\UM\X64\SHELL32.LIB
C:\PROGRAM FILES (X86)\WINDOWS KITS\10\LIB\10.0.17134.0\UM\X64\OLE32.LIB
C:\PROGRAM FILES (X86)\WINDOWS KITS\10\LIB\10.0.17134.0\UM\X64\OLEAUT32.LIB
C:\PROGRAM FILES (X86)\WINDOWS KITS\10\LIB\10.0.17134.0\UM\X64\UUID.LIB
C:\PROGRAM FILES (X86)\WINDOWS KITS\10\LIB\10.0.17134.0\UM\X64\ODBC32.LIB
C:\PROGRAM FILES (X86)\WINDOWS KITS\10\LIB\10.0.17134.0\UM\X64\ODBCCP32.LIB
Y:\GIT\3980\ASSIGNMENT4\FINALPROJECT\CODE\3980_ASSIGNMENT1\X64\DEBUG\3980_ASSIGNMENT1.RES
Y:\GIT\3980\ASSIGNMENT4\FINALPROJECT\CODE\3980_ASSIGNMENT1\X64\DEBUG\APPLICATION.OBJ
Y:\GIT\3980\ASSIGNMENT4\FINALPROJECT\CODE\3980_ASSIGNMENT1\X64\DEBUG\PHYSICAL.OBJ
Y:\GIT\3980\ASSIGNMENT4\FINALPROJECT\CODE\3980_ASSIGNMENT1\X64\DEBUG\SESSION.OBJ
Y:\GIT\3980\ASSIGNMENT4\FINALPROJECT\CODE\3980_ASSIGNMENT1\X64\DEBUG\STDAFX.OBJ
C:\WINDOWS\GLOBALIZATION\SORTING\SORTDEFAULT.NLS
C:\PROGRAM FILES (X86)\MICROSOFT VISUAL STUDIO\2017\COMMUNITY\VC\TOOLS\MSVC\14.16.27023\LIB\X64\MSVCRTD.LIB
C:\PROGRAM FILES (X86)\MICROSOFT VISUAL STUDIO\2017\COMMUNITY\VC\TOOLS\MSVC\14.16.27023\LIB\X64\OLDNAMES.LIB
C:\PROGRAM FILES (X86)\MICROSOFT VISUAL STUDIO\2017\COMMUNITY\VC\TOOLS\MSVC\14.16.27023\LIB\X64\VCRUNTIMED.LIB
C:\PROGRAM FILES (X86)\WINDOWS KITS\10\LIB\10.0.17134.0\UCRT\X64\UCRTD.LIB
