^Y:\GIT\3980\ASSIGNMENT4\FINALPROJECT\CODE\3980_ASSIGNMENT1\X64\DEBUG\3980_ASSIGNMENT1.RES|Y:\GIT\3980\ASSIGNMENT4\FINALPROJECT\CODE\3980_ASSIGNMENT1\X64\DEBUG\APPLICATION.OBJ|Y:\GIT\3980\ASSIGNMENT4\FINALPROJECT\CODE\3980_ASSIGNMENT1\X64\DEBUG\PHYSICAL.OBJ|Y:\GIT\3980\ASSIGNMENT4\FINALPROJECT\CODE\3980_ASSIGNMENT1\X64\DEBUG\SESSION.OBJ|Y:\GIT\3980\ASSIGNMENT4\FINALPROJECT\CODE\3980_ASSIGNMENT1\X64\DEBUG\STDAFX.OBJ
Y:\GIT\3980\ASSIGNMENT4\FINALPROJECT\CODE\X64\DEBUG\3980_ASSIGNMENT1.ILK
Y:\GIT\3980\ASSIGNMENT4\FINALPROJECT\CODE\X64\DEBUG\3980_ASSIGNMENT1.EXE
Y:\GIT\3980\ASSIGNMENT4\FINALPROJECT\CODE\X64\DEBUG\3980_ASSIGNMENT1.PDB
